{
  "apiVersion": "1.0",
  "data": {
    "updated": 20161130153713,
    "totalItems": 392,
    "currentItemCount": 10,
    "itemsPerPage": 10,
    "startIndex": 0,
    "pageIndex": 0,
    "totalPages": 40,
    "items": [
      {
        "abnormal": false,
        "categoryCode": "urn:va:lab-category:MI",
        "categoryName": "Microbiology",
        "facilityCode": "500",
        "facilityName": "CAMP MASTER",
        "groupName": "MI 15 4",
        "groupUid": "urn:va:accession:9E7A:3:MI;6849795.877557",
        "kind": "Microbiology",
        "lastUpdateTime": "20150203122400",
        "lnccodes": [
          "urn:va:ien:60:548:999"
        ],
        "localId": "MI;6849795.877557",
        "micro": true,
        "observed": "201502031224",
        "organisms": [
          {
            "drugs": [
              {
                "interp": "R",
                "name": "VANCOMYCIN",
                "restrict": "A",
                "result": "R"
              },
              {
                "interp": "R",
                "name": "GENTAMICIN",
                "result": "R"
              },
              {
                "interp": "R",
                "name": "CHLORAMPHENICOL",
                "restrict": "R",
                "result": "R"
              },
              {
                "interp": "S",
                "name": "CEFAZOLIN",
                "result": "S"
              },
              {
                "interp": "R",
                "name": "AMPICILLIN",
                "restrict": "R",
                "result": "R"
              },
              {
                "interp": "R",
                "name": "TOBRMCN",
                "result": "R"
              },
              {
                "interp": "R",
                "name": "TRMSULF",
                "restrict": "A",
                "result": "R"
              },
              {
                "interp": "R",
                "name": "AMIKACAN",
                "result": "R"
              },
              {
                "interp": "S",
                "name": "CEFOXITIN",
                "result": "S"
              },
              {
                "interp": "R",
                "name": "PIPERACILLIN",
                "result": "R"
              },
              {
                "interp": "S",
                "name": "CEFOTAXIME",
                "result": "S"
              },
              {
                "interp": "R",
                "name": "MEZLOCILLIN",
                "result": "R"
              }
            ],
            "name": "ACINETOBACTER ANITRATUS",
            "qty": ">25,000 - <50,000 CFU/ML "
          }
        ],
        "pid": "9E7A;3",
        "qualifiedName": "CULTURE & SUSCEPTIBILITY (UNKNOWN)",
        "results": [
          {
            "localTitle": "LR MICROBIOLOGY REPORT",
            "resultUid": "urn:va:document:9E7A:3:MI;6849795.877557",
            "uid": "MI;6849795.877557"
          }
        ],
        "sample": "",
        "specimen": "UNKNOWN",
        "stampTime": "20150203122400",
        "statusCode": "urn:va:lab-status:completed",
        "statusName": "completed",
        "summary": "CULTURE & SUSCEPTIBILITY (UNKNOWN)",
        "typeCode": "urn:va:ien:60:548:999",
        "typeName": "CULTURE & SUSCEPTIBILITY",
        "uid": "urn:va:lab:9E7A:3:MI;6849795.877557"
      },
      {
        "abnormal": false,
        "categoryCode": "urn:va:lab-category:MI",
        "categoryName": "Microbiology",
        "facilityCode": "507",
        "facilityName": "CAMP BEE",
        "groupName": "MI 15 4",
        "groupUid": "urn:va:accession:C877:3:MI;6849795.877557",
        "kind": "Microbiology",
        "lastUpdateTime": "20150203122400",
        "lnccodes": [
          "urn:va:ien:60:548:999"
        ],
        "localId": "MI;6849795.877557",
        "micro": true,
        "observed": "201502031224",
        "organisms": [
          {
            "drugs": [
              {
                "interp": "R",
                "name": "VANCOMYCIN",
                "restrict": "A",
                "result": "R"
              },
              {
                "interp": "R",
                "name": "GENTAMICIN",
                "result": "R"
              },
              {
                "interp": "R",
                "name": "CHLORAMPHENICOL",
                "restrict": "R",
                "result": "R"
              },
              {
                "interp": "S",
                "name": "CEFAZOLIN",
                "result": "S"
              },
              {
                "interp": "R",
                "name": "AMPICILLIN",
                "restrict": "R",
                "result": "R"
              },
              {
                "interp": "R",
                "name": "TOBRMCN",
                "result": "R"
              },
              {
                "interp": "R",
                "name": "TRMSULF",
                "restrict": "A",
                "result": "R"
              },
              {
                "interp": "R",
                "name": "AMIKACAN",
                "result": "R"
              },
              {
                "interp": "S",
                "name": "CEFOXITIN",
                "result": "S"
              },
              {
                "interp": "R",
                "name": "PIPERACILLIN",
                "result": "R"
              },
              {
                "interp": "S",
                "name": "CEFOTAXIME",
                "result": "S"
              },
              {
                "interp": "R",
                "name": "MEZLOCILLIN",
                "result": "R"
              }
            ],
            "name": "ACINETOBACTER ANITRATUS",
            "qty": ">25,000 - <50,000 CFU/ML "
          }
        ],
        "pid": "C877;3",
        "qualifiedName": "CULTURE & SUSCEPTIBILITY (UNKNOWN)",
        "results": [
          {
            "localTitle": "LR MICROBIOLOGY REPORT",
            "resultUid": "urn:va:document:C877:3:MI;6849795.877557",
            "uid": "MI;6849795.877557"
          }
        ],
        "sample": "",
        "specimen": "UNKNOWN",
        "stampTime": "20150203122400",
        "statusCode": "urn:va:lab-status:completed",
        "statusName": "completed",
        "summary": "CULTURE & SUSCEPTIBILITY (UNKNOWN)",
        "typeCode": "urn:va:ien:60:548:999",
        "typeName": "CULTURE & SUSCEPTIBILITY",
        "uid": "urn:va:lab:C877:3:MI;6849795.877557"
      },
      {
        "abnormal": false,
        "categoryCode": "urn:va:lab-category:MI",
        "categoryName": "Microbiology",
        "comment": "~RIGHT ",
        "facilityCode": "500",
        "facilityName": "CAMP MASTER",
        "groupName": "MI 15 3",
        "groupUid": "urn:va:accession:9E7A:3:MI;6849795.878446",
        "kind": "Microbiology",
        "lastUpdateTime": "20150203121500",
        "lnccodes": [
          "urn:va:ien:60:548:1799"
        ],
        "localId": "MI;6849795.878446",
        "micro": true,
        "observed": "201502031215",
        "organisms": [
          {
            "drugs": [
              {
                "interp": "R",
                "name": "GENTAMICIN",
                "result": "R"
              },
              {
                "interp": "R",
                "name": "CHLORAMPHENICOL",
                "restrict": "R",
                "result": "R"
              },
              {
                "interp": "R",
                "name": "CEFAZOLIN",
                "result": "R"
              },
              {
                "interp": "R",
                "name": "AMPICILLIN",
                "restrict": "R",
                "result": "R"
              },
              {
                "interp": "R",
                "name": "TOBRMCN",
                "result": "R"
              },
              {
                "interp": "R",
                "name": "TRMSULF",
                "restrict": "A",
                "result": "R"
              },
              {
                "interp": "R",
                "name": "AMIKACAN",
                "result": "R"
              },
              {
                "interp": "S",
                "name": "CEFOXITIN",
                "result": "S"
              },
              {
                "interp": "R",
                "name": "PIPERACILLIN",
                "result": "R"
              },
              {
                "interp": "S",
                "name": "CEFOTAXIME",
                "result": "S"
              },
              {
                "interp": "R",
                "name": "MEZLOCILLIN",
                "result": "R"
              }
            ],
            "name": "ACINETOBACTER ANITRATUS",
            "qty": ">75,000 - <100,000 CFU/ML "
          }
        ],
        "pid": "9E7A;3",
        "qualifiedName": "CULTURE & SUSCEPTIBILITY (CALCANEUS)",
        "results": [
          {
            "localTitle": "LR MICROBIOLOGY REPORT",
            "resultUid": "urn:va:document:9E7A:3:MI;6849795.878446",
            "uid": "MI;6849795.878446"
          }
        ],
        "sample": "",
        "specimen": "CALCANEUS",
        "stampTime": "20150203121500",
        "statusCode": "urn:va:lab-status:completed",
        "statusName": "completed",
        "summary": "CULTURE & SUSCEPTIBILITY (CALCANEUS)",
        "typeCode": "urn:va:ien:60:548:1799",
        "typeName": "CULTURE & SUSCEPTIBILITY",
        "uid": "urn:va:lab:9E7A:3:MI;6849795.878446"
      },
      {
        "abnormal": false,
        "categoryCode": "urn:va:lab-category:MI",
        "categoryName": "Microbiology",
        "comment": "~RIGHT ",
        "facilityCode": "507",
        "facilityName": "CAMP BEE",
        "groupName": "MI 15 3",
        "groupUid": "urn:va:accession:C877:3:MI;6849795.878446",
        "kind": "Microbiology",
        "lastUpdateTime": "20150203121500",
        "lnccodes": [
          "urn:va:ien:60:548:1799"
        ],
        "localId": "MI;6849795.878446",
        "micro": true,
        "observed": "201502031215",
        "organisms": [
          {
            "drugs": [
              {
                "interp": "R",
                "name": "GENTAMICIN",
                "result": "R"
              },
              {
                "interp": "R",
                "name": "CHLORAMPHENICOL",
                "restrict": "R",
                "result": "R"
              },
              {
                "interp": "R",
                "name": "CEFAZOLIN",
                "result": "R"
              },
              {
                "interp": "R",
                "name": "AMPICILLIN",
                "restrict": "R",
                "result": "R"
              },
              {
                "interp": "R",
                "name": "TOBRMCN",
                "result": "R"
              },
              {
                "interp": "R",
                "name": "TRMSULF",
                "restrict": "A",
                "result": "R"
              },
              {
                "interp": "R",
                "name": "AMIKACAN",
                "result": "R"
              },
              {
                "interp": "S",
                "name": "CEFOXITIN",
                "result": "S"
              },
              {
                "interp": "R",
                "name": "PIPERACILLIN",
                "result": "R"
              },
              {
                "interp": "S",
                "name": "CEFOTAXIME",
                "result": "S"
              },
              {
                "interp": "R",
                "name": "MEZLOCILLIN",
                "result": "R"
              }
            ],
            "name": "ACINETOBACTER ANITRATUS",
            "qty": ">75,000 - <100,000 CFU/ML "
          }
        ],
        "pid": "C877;3",
        "qualifiedName": "CULTURE & SUSCEPTIBILITY (CALCANEUS)",
        "results": [
          {
            "localTitle": "LR MICROBIOLOGY REPORT",
            "resultUid": "urn:va:document:C877:3:MI;6849795.878446",
            "uid": "MI;6849795.878446"
          }
        ],
        "sample": "",
        "specimen": "CALCANEUS",
        "stampTime": "20150203121500",
        "statusCode": "urn:va:lab-status:completed",
        "statusName": "completed",
        "summary": "CULTURE & SUSCEPTIBILITY (CALCANEUS)",
        "typeCode": "urn:va:ien:60:548:1799",
        "typeName": "CULTURE & SUSCEPTIBILITY",
        "uid": "urn:va:lab:C877:3:MI;6849795.878446"
      },
      {
        "abnormal": true,
        "categoryCode": "urn:va:lab-category:CH",
        "categoryName": "Laboratory",
        "comment": "Ordering Provider: Ten Vehu Report Released Date/Time: Jan 29, 2015@15:30\r\n Performing Lab: ALBANY VA MEDICAL CENTER\r\n                VA MEDICAL CENTER 1 3RD sT. ALBANY, NY 12180-0097\r\n ",
        "displayName": "GLUCOSE",
        "displayOrder": 1,
        "facilityCode": "500",
        "facilityName": "CAMP MASTER",
        "groupName": "CH 0129 1",
        "groupUid": "urn:va:accession:9E7A:3:CH;6849869.848277",
        "high": "110",
        "interpretationCode": "urn:hl7:observation-interpretation:H",
        "interpretationName": "High",
        "kind": "Laboratory",
        "labOrderId": 18415,
        "lastUpdateTime": "20150129153000",
        "lnccodes": [
          "urn:va:ien:60:175:72"
        ],
        "localId": "CH;6849869.848277;2",
        "low": "60",
        "micro": false,
        "observed": "201501291517",
        "pid": "9E7A;3",
        "qualifiedName": "GLUCOSE (SERUM)",
        "result": "221",
        "resultNumber": 221,
        "resulted": "201501291530",
        "sample": "",
        "specimen": "SERUM",
        "stampTime": "20150129153000",
        "statusCode": "urn:va:lab-status:completed",
        "statusName": "completed",
        "summary": "GLUCOSE (SERUM) 221<em>H</em> mg/dL",
        "typeCode": "urn:va:ien:60:175:72",
        "typeId": 175,
        "typeName": "GLUCOSE",
        "uid": "urn:va:lab:9E7A:3:CH;6849869.848277;2",
        "units": "mg/dL"
      },
      {
        "abnormal": false,
        "categoryCode": "urn:va:lab-category:CH",
        "categoryName": "Laboratory",
        "comment": "Ordering Provider: Ten Vehu Report Released Date/Time: Jan 29, 2015@15:30\r\n Performing Lab: ALBANY VA MEDICAL CENTER\r\n                VA MEDICAL CENTER 1 3RD sT. ALBANY, NY 12180-0097\r\n ",
        "displayName": "BUN",
        "displayOrder": 1.1,
        "facilityCode": "500",
        "facilityName": "CAMP MASTER",
        "groupName": "CH 0129 1",
        "groupUid": "urn:va:accession:9E7A:3:CH;6849869.848277",
        "high": "24",
        "kind": "Laboratory",
        "labOrderId": 18415,
        "lastUpdateTime": "20150129153000",
        "lnccodes": [
          "urn:va:ien:60:174:72"
        ],
        "localId": "CH;6849869.848277;3",
        "low": "5",
        "micro": false,
        "observed": "201501291517",
        "pid": "9E7A;3",
        "qualifiedName": "UREA NITROGEN (SERUM)",
        "result": "11",
        "resultNumber": 11,
        "resulted": "201501291530",
        "sample": "",
        "specimen": "SERUM",
        "stampTime": "20150129153000",
        "statusCode": "urn:va:lab-status:completed",
        "statusName": "completed",
        "summary": "UREA NITROGEN (SERUM) 11 mg/dL",
        "typeCode": "urn:va:ien:60:174:72",
        "typeId": 174,
        "typeName": "UREA NITROGEN",
        "uid": "urn:va:lab:9E7A:3:CH;6849869.848277;3",
        "units": "mg/dL"
      },
      {
        "abnormal": false,
        "categoryCode": "urn:va:lab-category:CH",
        "categoryName": "Laboratory",
        "comment": "Ordering Provider: Ten Vehu Report Released Date/Time: Jan 29, 2015@15:30\r\n Performing Lab: ALBANY VA MEDICAL CENTER\r\n                VA MEDICAL CENTER 1 3RD sT. ALBANY, NY 12180-0097\r\n ",
        "displayName": "CREAT",
        "displayOrder": 1.6,
        "facilityCode": "500",
        "facilityName": "CAMP MASTER",
        "groupName": "CH 0129 1",
        "groupUid": "urn:va:accession:9E7A:3:CH;6849869.848277",
        "high": "1.4",
        "kind": "Laboratory",
        "labOrderId": 18415,
        "lastUpdateTime": "20150129153000",
        "lnccodes": [
          "urn:va:ien:60:173:72"
        ],
        "localId": "CH;6849869.848277;4",
        "low": "0.9",
        "micro": false,
        "observed": "201501291517",
        "pid": "9E7A;3",
        "qualifiedName": "CREATININE (SERUM)",
        "result": "1.1",
        "resultNumber": 1.1,
        "resulted": "201501291530",
        "sample": "",
        "specimen": "SERUM",
        "stampTime": "20150129153000",
        "statusCode": "urn:va:lab-status:completed",
        "statusName": "completed",
        "summary": "CREATININE (SERUM) 1.1 mg/dL",
        "typeCode": "urn:va:ien:60:173:72",
        "typeId": 173,
        "typeName": "CREATININE",
        "uid": "urn:va:lab:9E7A:3:CH;6849869.848277;4",
        "units": "mg/dL"
      },
      {
        "abnormal": false,
        "categoryCode": "urn:va:lab-category:CH",
        "categoryName": "Laboratory",
        "comment": "Ordering Provider: Ten Vehu Report Released Date/Time: Jan 29, 2015@15:30\r\n Performing Lab: ALBANY VA MEDICAL CENTER\r\n                VA MEDICAL CENTER 1 3RD sT. ALBANY, NY 12180-0097\r\n ",
        "displayName": "NA",
        "displayOrder": 1.2,
        "facilityCode": "500",
        "facilityName": "CAMP MASTER",
        "groupName": "CH 0129 1",
        "groupUid": "urn:va:accession:9E7A:3:CH;6849869.848277",
        "high": "145",
        "kind": "Laboratory",
        "labOrderId": 18415,
        "lastUpdateTime": "20150129153000",
        "lnccodes": [
          "urn:va:ien:60:176:72"
        ],
        "localId": "CH;6849869.848277;5",
        "low": "135",
        "micro": false,
        "observed": "201501291517",
        "pid": "9E7A;3",
        "qualifiedName": "SODIUM (SERUM)",
        "result": "141",
        "resultNumber": 141,
        "resulted": "201501291530",
        "sample": "",
        "specimen": "SERUM",
        "stampTime": "20150129153000",
        "statusCode": "urn:va:lab-status:completed",
        "statusName": "completed",
        "summary": "SODIUM (SERUM) 141 meq/L",
        "typeCode": "urn:va:ien:60:176:72",
        "typeId": 176,
        "typeName": "SODIUM",
        "uid": "urn:va:lab:9E7A:3:CH;6849869.848277;5",
        "units": "meq/L"
      },
      {
        "abnormal": true,
        "categoryCode": "urn:va:lab-category:CH",
        "categoryName": "Laboratory",
        "comment": "Ordering Provider: Ten Vehu Report Released Date/Time: Jan 29, 2015@15:30\r\n Performing Lab: ALBANY VA MEDICAL CENTER\r\n                VA MEDICAL CENTER 1 3RD sT. ALBANY, NY 12180-0097\r\n ",
        "displayName": "TROPNIN",
        "displayOrder": 998.0500036,
        "facilityCode": "500",
        "facilityName": "CAMP MASTER",
        "groupName": "CH 0129 1",
        "groupUid": "urn:va:accession:9E7A:3:CH;6849869.848277",
        "high": "0.5",
        "interpretationCode": "urn:hl7:observation-interpretation:H",
        "interpretationName": "High",
        "kind": "Laboratory",
        "labOrderId": 18415,
        "lastUpdateTime": "20150129153000",
        "lnccodes": [
          "urn:va:ien:60:5093:72"
        ],
        "localId": "CH;6849869.848277;500036",
        "low": "0",
        "micro": false,
        "observed": "201501291517",
        "orderUid": "urn:va:order:9E7A:3:38285",
        "pid": "9E7A;3",
        "qualifiedName": "TROPONIN (SERUM)",
        "result": "1",
        "resultNumber": 1,
        "resulted": "201501291530",
        "sample": "",
        "specimen": "SERUM",
        "stampTime": "20150129153000",
        "statusCode": "urn:va:lab-status:completed",
        "statusName": "completed",
        "summary": "TROPONIN (SERUM) 1<em>H</em> ug/mL",
        "typeCode": "urn:va:ien:60:5093:72",
        "typeId": 5093,
        "typeName": "TROPONIN",
        "uid": "urn:va:lab:9E7A:3:CH;6849869.848277;500036",
        "units": "ug/mL"
      },
      {
        "abnormal": false,
        "categoryCode": "urn:va:lab-category:CH",
        "categoryName": "Laboratory",
        "comment": "Ordering Provider: Ten Vehu Report Released Date/Time: Jan 29, 2015@15:30\r\n Performing Lab: ALBANY VA MEDICAL CENTER\r\n                VA MEDICAL CENTER 1 3RD sT. ALBANY, NY 12180-0097\r\n ",
        "displayName": "K",
        "displayOrder": 1.20000001,
        "facilityCode": "500",
        "facilityName": "CAMP MASTER",
        "groupName": "CH 0129 1",
        "groupUid": "urn:va:accession:9E7A:3:CH;6849869.848277",
        "high": "5.3",
        "kind": "Laboratory",
        "labOrderId": 18415,
        "lastUpdateTime": "20150129153000",
        "lnccodes": [
          "urn:va:ien:60:177:72"
        ],
        "localId": "CH;6849869.848277;6",
        "low": "3.8",
        "micro": false,
        "observed": "201501291517",
        "pid": "9E7A;3",
        "qualifiedName": "POTASSIUM (SERUM)",
        "result": "4.1",
        "resultNumber": 4.1,
        "resulted": "201501291530",
        "sample": "",
        "specimen": "SERUM",
        "stampTime": "20150129153000",
        "statusCode": "urn:va:lab-status:completed",
        "statusName": "completed",
        "summary": "POTASSIUM (SERUM) 4.1 meq/L",
        "typeCode": "urn:va:ien:60:177:72",
        "typeId": 177,
        "typeName": "POTASSIUM",
        "uid": "urn:va:lab:9E7A:3:CH;6849869.848277;6",
        "units": "meq/L"
      }
    ]
  },
  "status": 200
}